EXT16T32/EXT16T32.vcd
$date
	Tue Oct 31 01:46:02 2023
$end
$version
	Icarus Verilog
$end
$timescale
	1ns
$end
$scope module tb_EXT16T32 $end
$var wire 32 ! Y [31:0] $end
$var reg 1 " B $end
$var reg 16 # X [15:0] $end
$var integer 32 $ j [31:0] $end
$scope module data $end
$var wire 1 " B $end
$var wire 16 % X [15:0] $end
$var wire 16 & z [15:0] $end
$var wire 16 ' e [15:0] $end
$var wire 32 ( Y [31:0] $end
$var wire 32 ) E1 [31:0] $end
$var wire 32 * E0 [31:0] $end
$scope module i $end
$var wire 32 + A [31:0] $end
$var wire 32 , B [31:0] $end
$var wire 1 " S $end
$var wire 32 - Y [31:0] $end
$scope function select $end
$var reg 32 . A [31:0] $end
$var reg 32 / B [31:0] $end
$var reg 1 0 S $end
$upscope $end
$upscope $end
$upscope $end
$upscope $end
$enddefinitions $end
#0
$dumpvars
00
b11111111111111111111111110011100 /
b1111111110011100 .
b1111111110011100 -
b11111111111111111111111110011100 ,
b1111111110011100 +
b1111111110011100 *
b11111111111111111111111110011100 )
b1111111110011100 (
b1111111111111111 '
b0 &
b1111111110011100 %
b11111111111111111111111110011100 $
b1111111110011100 #
0"
b1111111110011100 !
$end
#50
b11111111111111111111111110011101 !
b11111111111111111111111110011101 (
b11111111111111111111111110011101 -
10
b11111111111111111111111110011101 /
b1111111110011101 .
1"
b1111111110011101 *
b1111111110011101 +
b11111111111111111111111110011101 )
b11111111111111111111111110011101 ,
b1111111110011101 #
b1111111110011101 %
b11111111111111111111111110011101 $
#100
b1111111110011110 !
b1111111110011110 (
b1111111110011110 -
00
b11111111111111111111111110011110 /
b1111111110011110 .
0"
b1111111110011110 *
b1111111110011110 +
b11111111111111111111111110011110 )
b11111111111111111111111110011110 ,
b1111111110011110 #
b1111111110011110 %
b11111111111111111111111110011110 $
#150
b11111111111111111111111110011111 !
b11111111111111111111111110011111 (
b11111111111111111111111110011111 -
10
b11111111111111111111111110011111 /
b1111111110011111 .
1"
b1111111110011111 *
b1111111110011111 +
b11111111111111111111111110011111 )
b11111111111111111111111110011111 ,
b1111111110011111 #
b1111111110011111 %
b11111111111111111111111110011111 $
#200
b1111111110100000 !
b1111111110100000 (
b1111111110100000 -
00
b11111111111111111111111110100000 /
b1111111110100000 .
0"
b1111111110100000 *
b1111111110100000 +
b11111111111111111111111110100000 )
b11111111111111111111111110100000 ,
b1111111110100000 #
b1111111110100000 %
b11111111111111111111111110100000 $
#250
b11111111111111111111111110100001 !
b11111111111111111111111110100001 (
b11111111111111111111111110100001 -
10
b11111111111111111111111110100001 /
b1111111110100001 .
1"
b1111111110100001 *
b1111111110100001 +
b11111111111111111111111110100001 )
b11111111111111111111111110100001 ,
b1111111110100001 #
b1111111110100001 %
b11111111111111111111111110100001 $
#300
b1111111110100010 !
b1111111110100010 (
b1111111110100010 -
00
b11111111111111111111111110100010 /
b1111111110100010 .
0"
b1111111110100010 *
b1111111110100010 +
b11111111111111111111111110100010 )
b11111111111111111111111110100010 ,
b1111111110100010 #
b1111111110100010 %
b11111111111111111111111110100010 $
#350
b11111111111111111111111110100011 !
b11111111111111111111111110100011 (
b11111111111111111111111110100011 -
10
b11111111111111111111111110100011 /
b1111111110100011 .
1"
b1111111110100011 *
b1111111110100011 +
b11111111111111111111111110100011 )
b11111111111111111111111110100011 ,
b1111111110100011 #
b1111111110100011 %
b11111111111111111111111110100011 $
#400
b1111111110100100 !
b1111111110100100 (
b1111111110100100 -
00
b11111111111111111111111110100100 /
b1111111110100100 .
0"
b1111111110100100 *
b1111111110100100 +
b11111111111111111111111110100100 )
b11111111111111111111111110100100 ,
b1111111110100100 #
b1111111110100100 %
b11111111111111111111111110100100 $
#450
b11111111111111111111111110100101 !
b11111111111111111111111110100101 (
b11111111111111111111111110100101 -
10
b11111111111111111111111110100101 /
b1111111110100101 .
1"
b1111111110100101 *
b1111111110100101 +
b11111111111111111111111110100101 )
b11111111111111111111111110100101 ,
b1111111110100101 #
b1111111110100101 %
b11111111111111111111111110100101 $
#500
b1111111110100110 !
b1111111110100110 (
b1111111110100110 -
00
b11111111111111111111111110100110 /
b1111111110100110 .
0"
b1111111110100110 *
b1111111110100110 +
b11111111111111111111111110100110 )
b11111111111111111111111110100110 ,
b1111111110100110 #
b1111111110100110 %
b11111111111111111111111110100110 $
#550
b11111111111111111111111110100111 !
b11111111111111111111111110100111 (
b11111111111111111111111110100111 -
10
b11111111111111111111111110100111 /
b1111111110100111 .
1"
b1111111110100111 *
b1111111110100111 +
b11111111111111111111111110100111 )
b11111111111111111111111110100111 ,
b1111111110100111 #
b1111111110100111 %
b11111111111111111111111110100111 $
#600
b1111111110101000 !
b1111111110101000 (
b1111111110101000 -
00
b11111111111111111111111110101000 /
b1111111110101000 .
0"
b1111111110101000 *
b1111111110101000 +
b11111111111111111111111110101000 )
b11111111111111111111111110101000 ,
b1111111110101000 #
b1111111110101000 %
b11111111111111111111111110101000 $
#650
b11111111111111111111111110101001 !
b11111111111111111111111110101001 (
b11111111111111111111111110101001 -
10
b11111111111111111111111110101001 /
b1111111110101001 .
1"
b1111111110101001 *
b1111111110101001 +
b11111111111111111111111110101001 )
b11111111111111111111111110101001 ,
b1111111110101001 #
b1111111110101001 %
b11111111111111111111111110101001 $
#700
b1111111110101010 !
b1111111110101010 (
b1111111110101010 -
00
b11111111111111111111111110101010 /
b1111111110101010 .
0"
b1111111110101010 *
b1111111110101010 +
b11111111111111111111111110101010 )
b11111111111111111111111110101010 ,
b1111111110101010 #
b1111111110101010 %
b11111111111111111111111110101010 $
#750
b11111111111111111111111110101011 !
b11111111111111111111111110101011 (
b11111111111111111111111110101011 -
10
b11111111111111111111111110101011 /
b1111111110101011 .
1"
b1111111110101011 *
b1111111110101011 +
b11111111111111111111111110101011 )
b11111111111111111111111110101011 ,
b1111111110101011 #
b1111111110101011 %
b11111111111111111111111110101011 $
#800
b1111111110101100 !
b1111111110101100 (
b1111111110101100 -
00
b11111111111111111111111110101100 /
b1111111110101100 .
0"
b1111111110101100 *
b1111111110101100 +
b11111111111111111111111110101100 )
b11111111111111111111111110101100 ,
b1111111110101100 #
b1111111110101100 %
b11111111111111111111111110101100 $
#850
b11111111111111111111111110101101 !
b11111111111111111111111110101101 (
b11111111111111111111111110101101 -
10
b11111111111111111111111110101101 /
b1111111110101101 .
1"
b1111111110101101 *
b1111111110101101 +
b11111111111111111111111110101101 )
b11111111111111111111111110101101 ,
b1111111110101101 #
b1111111110101101 %
b11111111111111111111111110101101 $
#900
b1111111110101110 !
b1111111110101110 (
b1111111110101110 -
00
b11111111111111111111111110101110 /
b1111111110101110 .
0"
b1111111110101110 *
b1111111110101110 +
b11111111111111111111111110101110 )
b11111111111111111111111110101110 ,
b1111111110101110 #
b1111111110101110 %
b11111111111111111111111110101110 $
#950
b11111111111111111111111110101111 !
b11111111111111111111111110101111 (
b11111111111111111111111110101111 -
10
b11111111111111111111111110101111 /
b1111111110101111 .
1"
b1111111110101111 *
b1111111110101111 +
b11111111111111111111111110101111 )
b11111111111111111111111110101111 ,
b1111111110101111 #
b1111111110101111 %
b11111111111111111111111110101111 $
#1000
b1111111110110000 !
b1111111110110000 (
b1111111110110000 -
00
b11111111111111111111111110110000 /
b1111111110110000 .
0"
b1111111110110000 *
b1111111110110000 +
b11111111111111111111111110110000 )
b11111111111111111111111110110000 ,
b1111111110110000 #
b1111111110110000 %
b11111111111111111111111110110000 $
#1050
b11111111111111111111111110110001 !
b11111111111111111111111110110001 (
b11111111111111111111111110110001 -
10
b11111111111111111111111110110001 /
b1111111110110001 .
1"
b1111111110110001 *
b1111111110110001 +
b11111111111111111111111110110001 )
b11111111111111111111111110110001 ,
b1111111110110001 #
b1111111110110001 %
b11111111111111111111111110110001 $
#1100
b1111111110110010 !
b1111111110110010 (
b1111111110110010 -
00
b11111111111111111111111110110010 /
b1111111110110010 .
0"
b1111111110110010 *
b1111111110110010 +
b11111111111111111111111110110010 )
b11111111111111111111111110110010 ,
b1111111110110010 #
b1111111110110010 %
b11111111111111111111111110110010 $
#1150
b11111111111111111111111110110011 !
b11111111111111111111111110110011 (
b11111111111111111111111110110011 -
10
b11111111111111111111111110110011 /
b1111111110110011 .
1"
b1111111110110011 *
b1111111110110011 +
b11111111111111111111111110110011 )
b11111111111111111111111110110011 ,
b1111111110110011 #
b1111111110110011 %
b11111111111111111111111110110011 $
#1200
b1111111110110100 !
b1111111110110100 (
b1111111110110100 -
00
b11111111111111111111111110110100 /
b1111111110110100 .
0"
b1111111110110100 *
b1111111110110100 +
b11111111111111111111111110110100 )
b11111111111111111111111110110100 ,
b1111111110110100 #
b1111111110110100 %
b11111111111111111111111110110100 $
#1250
b11111111111111111111111110110101 !
b11111111111111111111111110110101 (
b11111111111111111111111110110101 -
10
b11111111111111111111111110110101 /
b1111111110110101 .
1"
b1111111110110101 *
b1111111110110101 +
b11111111111111111111111110110101 )
b11111111111111111111111110110101 ,
b1111111110110101 #
b1111111110110101 %
b11111111111111111111111110110101 $
#1300
b1111111110110110 !
b1111111110110110 (
b1111111110110110 -
00
b11111111111111111111111110110110 /
b1111111110110110 .
0"
b1111111110110110 *
b1111111110110110 +
b11111111111111111111111110110110 )
b11111111111111111111111110110110 ,
b1111111110110110 #
b1111111110110110 %
b11111111111111111111111110110110 $
#1350
b11111111111111111111111110110111 !
b11111111111111111111111110110111 (
b11111111111111111111111110110111 -
10
b11111111111111111111111110110111 /
b1111111110110111 .
1"
b1111111110110111 *
b1111111110110111 +
b11111111111111111111111110110111 )
b11111111111111111111111110110111 ,
b1111111110110111 #
b1111111110110111 %
b11111111111111111111111110110111 $
#1400
b1111111110111000 !
b1111111110111000 (
b1111111110111000 -
00
b11111111111111111111111110111000 /
b1111111110111000 .
0"
b1111111110111000 *
b1111111110111000 +
b11111111111111111111111110111000 )
b11111111111111111111111110111000 ,
b1111111110111000 #
b1111111110111000 %
b11111111111111111111111110111000 $
#1450
b11111111111111111111111110111001 !
b11111111111111111111111110111001 (
b11111111111111111111111110111001 -
10
b11111111111111111111111110111001 /
b1111111110111001 .
1"
b1111111110111001 *
b1111111110111001 +
b11111111111111111111111110111001 )
b11111111111111111111111110111001 ,
b1111111110111001 #
b1111111110111001 %
b11111111111111111111111110111001 $
#1500
b1111111110111010 !
b1111111110111010 (
b1111111110111010 -
00
b11111111111111111111111110111010 /
b1111111110111010 .
0"
b1111111110111010 *
b1111111110111010 +
b11111111111111111111111110111010 )
b11111111111111111111111110111010 ,
b1111111110111010 #
b1111111110111010 %
b11111111111111111111111110111010 $
#1550
b11111111111111111111111110111011 !
b11111111111111111111111110111011 (
b11111111111111111111111110111011 -
10
b11111111111111111111111110111011 /
b1111111110111011 .
1"
b1111111110111011 *
b1111111110111011 +
b11111111111111111111111110111011 )
b11111111111111111111111110111011 ,
b1111111110111011 #
b1111111110111011 %
b11111111111111111111111110111011 $
#1600
b1111111110111100 !
b1111111110111100 (
b1111111110111100 -
00
b11111111111111111111111110111100 /
b1111111110111100 .
0"
b1111111110111100 *
b1111111110111100 +
b11111111111111111111111110111100 )
b11111111111111111111111110111100 ,
b1111111110111100 #
b1111111110111100 %
b11111111111111111111111110111100 $
#1650
b11111111111111111111111110111101 !
b11111111111111111111111110111101 (
b11111111111111111111111110111101 -
10
b11111111111111111111111110111101 /
b1111111110111101 .
1"
b1111111110111101 *
b1111111110111101 +
b11111111111111111111111110111101 )
b11111111111111111111111110111101 ,
b1111111110111101 #
b1111111110111101 %
b11111111111111111111111110111101 $
#1700
b1111111110111110 !
b1111111110111110 (
b1111111110111110 -
00
b11111111111111111111111110111110 /
b1111111110111110 .
0"
b1111111110111110 *
b1111111110111110 +
b11111111111111111111111110111110 )
b11111111111111111111111110111110 ,
b1111111110111110 #
b1111111110111110 %
b11111111111111111111111110111110 $
#1750
b11111111111111111111111110111111 !
b11111111111111111111111110111111 (
b11111111111111111111111110111111 -
10
b11111111111111111111111110111111 /
b1111111110111111 .
1"
b1111111110111111 *
b1111111110111111 +
b11111111111111111111111110111111 )
b11111111111111111111111110111111 ,
b1111111110111111 #
b1111111110111111 %
b11111111111111111111111110111111 $
#1800
b1111111111000000 !
b1111111111000000 (
b1111111111000000 -
00
b11111111111111111111111111000000 /
b1111111111000000 .
0"
b1111111111000000 *
b1111111111000000 +
b11111111111111111111111111000000 )
b11111111111111111111111111000000 ,
b1111111111000000 #
b1111111111000000 %
b11111111111111111111111111000000 $
#1850
b11111111111111111111111111000001 !
b11111111111111111111111111000001 (
b11111111111111111111111111000001 -
10
b11111111111111111111111111000001 /
b1111111111000001 .
1"
b1111111111000001 *
b1111111111000001 +
b11111111111111111111111111000001 )
b11111111111111111111111111000001 ,
b1111111111000001 #
b1111111111000001 %
b11111111111111111111111111000001 $
#1900
b1111111111000010 !
b1111111111000010 (
b1111111111000010 -
00
b11111111111111111111111111000010 /
b1111111111000010 .
0"
b1111111111000010 *
b1111111111000010 +
b11111111111111111111111111000010 )
b11111111111111111111111111000010 ,
b1111111111000010 #
b1111111111000010 %
b11111111111111111111111111000010 $
#1950
b11111111111111111111111111000011 !
b11111111111111111111111111000011 (
b11111111111111111111111111000011 -
10
b11111111111111111111111111000011 /
b1111111111000011 .
1"
b1111111111000011 *
b1111111111000011 +
b11111111111111111111111111000011 )
b11111111111111111111111111000011 ,
b1111111111000011 #
b1111111111000011 %
b11111111111111111111111111000011 $
#2000
b1111111111000100 !
b1111111111000100 (
b1111111111000100 -
00
b11111111111111111111111111000100 /
b1111111111000100 .
0"
b1111111111000100 *
b1111111111000100 +
b11111111111111111111111111000100 )
b11111111111111111111111111000100 ,
b1111111111000100 #
b1111111111000100 %
b11111111111111111111111111000100 $
#2050
b11111111111111111111111111000101 !
b11111111111111111111111111000101 (
b11111111111111111111111111000101 -
10
b11111111111111111111111111000101 /
b1111111111000101 .
1"
b1111111111000101 *
b1111111111000101 +
b11111111111111111111111111000101 )
b11111111111111111111111111000101 ,
b1111111111000101 #
b1111111111000101 %
b11111111111111111111111111000101 $
#2100
b1111111111000110 !
b1111111111000110 (
b1111111111000110 -
00
b11111111111111111111111111000110 /
b1111111111000110 .
0"
b1111111111000110 *
b1111111111000110 +
b11111111111111111111111111000110 )
b11111111111111111111111111000110 ,
b1111111111000110 #
b1111111111000110 %
b11111111111111111111111111000110 $
#2150
b11111111111111111111111111000111 !
b11111111111111111111111111000111 (
b11111111111111111111111111000111 -
10
b11111111111111111111111111000111 /
b1111111111000111 .
1"
b1111111111000111 *
b1111111111000111 +
b11111111111111111111111111000111 )
b11111111111111111111111111000111 ,
b1111111111000111 #
b1111111111000111 %
b11111111111111111111111111000111 $
#2200
b1111111111001000 !
b1111111111001000 (
b1111111111001000 -
00
b11111111111111111111111111001000 /
b1111111111001000 .
0"
b1111111111001000 *
b1111111111001000 +
b11111111111111111111111111001000 )
b11111111111111111111111111001000 ,
b1111111111001000 #
b1111111111001000 %
b11111111111111111111111111001000 $
#2250
b11111111111111111111111111001001 !
b11111111111111111111111111001001 (
b11111111111111111111111111001001 -
10
b11111111111111111111111111001001 /
b1111111111001001 .
1"
b1111111111001001 *
b1111111111001001 +
b11111111111111111111111111001001 )
b11111111111111111111111111001001 ,
b1111111111001001 #
b1111111111001001 %
b11111111111111111111111111001001 $
#2300
b1111111111001010 !
b1111111111001010 (
b1111111111001010 -
00
b11111111111111111111111111001010 /
b1111111111001010 .
0"
b1111111111001010 *
b1111111111001010 +
b11111111111111111111111111001010 )
b11111111111111111111111111001010 ,
b1111111111001010 #
b1111111111001010 %
b11111111111111111111111111001010 $
#2350
b11111111111111111111111111001011 !
b11111111111111111111111111001011 (
b11111111111111111111111111001011 -
10
b11111111111111111111111111001011 /
b1111111111001011 .
1"
b1111111111001011 *
b1111111111001011 +
b11111111111111111111111111001011 )
b11111111111111111111111111001011 ,
b1111111111001011 #
b1111111111001011 %
b11111111111111111111111111001011 $
#2400
b1111111111001100 !
b1111111111001100 (
b1111111111001100 -
00
b11111111111111111111111111001100 /
b1111111111001100 .
0"
b1111111111001100 *
b1111111111001100 +
b11111111111111111111111111001100 )
b11111111111111111111111111001100 ,
b1111111111001100 #
b1111111111001100 %
b11111111111111111111111111001100 $
#2450
b11111111111111111111111111001101 !
b11111111111111111111111111001101 (
b11111111111111111111111111001101 -
10
b11111111111111111111111111001101 /
b1111111111001101 .
1"
b1111111111001101 *
b1111111111001101 +
b11111111111111111111111111001101 )
b11111111111111111111111111001101 ,
b1111111111001101 #
b1111111111001101 %
b11111111111111111111111111001101 $
#2500
b1111111111001110 !
b1111111111001110 (
b1111111111001110 -
00
b11111111111111111111111111001110 /
b1111111111001110 .
0"
b1111111111001110 *
b1111111111001110 +
b11111111111111111111111111001110 )
b11111111111111111111111111001110 ,
b1111111111001110 #
b1111111111001110 %
b11111111111111111111111111001110 $
#2550
b11111111111111111111111111001111 !
b11111111111111111111111111001111 (
b11111111111111111111111111001111 -
10
b11111111111111111111111111001111 /
b1111111111001111 .
1"
b1111111111001111 *
b1111111111001111 +
b11111111111111111111111111001111 )
b11111111111111111111111111001111 ,
b1111111111001111 #
b1111111111001111 %
b11111111111111111111111111001111 $
#2600
b1111111111010000 !
b1111111111010000 (
b1111111111010000 -
00
b11111111111111111111111111010000 /
b1111111111010000 .
0"
b1111111111010000 *
b1111111111010000 +
b11111111111111111111111111010000 )
b11111111111111111111111111010000 ,
b1111111111010000 #
b1111111111010000 %
b11111111111111111111111111010000 $
#2650
b11111111111111111111111111010001 !
b11111111111111111111111111010001 (
b11111111111111111111111111010001 -
10
b11111111111111111111111111010001 /
b1111111111010001 .
1"
b1111111111010001 *
b1111111111010001 +
b11111111111111111111111111010001 )
b11111111111111111111111111010001 ,
b1111111111010001 #
b1111111111010001 %
b11111111111111111111111111010001 $
#2700
b1111111111010010 !
b1111111111010010 (
b1111111111010010 -
00
b11111111111111111111111111010010 /
b1111111111010010 .
0"
b1111111111010010 *
b1111111111010010 +
b11111111111111111111111111010010 )
b11111111111111111111111111010010 ,
b1111111111010010 #
b1111111111010010 %
b11111111111111111111111111010010 $
#2750
b11111111111111111111111111010011 !
b11111111111111111111111111010011 (
b11111111111111111111111111010011 -
10
b11111111111111111111111111010011 /
b1111111111010011 .
1"
b1111111111010011 *
b1111111111010011 +
b11111111111111111111111111010011 )
b11111111111111111111111111010011 ,
b1111111111010011 #
b1111111111010011 %
b11111111111111111111111111010011 $
#2800
b1111111111010100 !
b1111111111010100 (
b1111111111010100 -
00
b11111111111111111111111111010100 /
b1111111111010100 .
0"
b1111111111010100 *
b1111111111010100 +
b11111111111111111111111111010100 )
b11111111111111111111111111010100 ,
b1111111111010100 #
b1111111111010100 %
b11111111111111111111111111010100 $
#2850
b11111111111111111111111111010101 !
b11111111111111111111111111010101 (
b11111111111111111111111111010101 -
10
b11111111111111111111111111010101 /
b1111111111010101 .
1"
b1111111111010101 *
b1111111111010101 +
b11111111111111111111111111010101 )
b11111111111111111111111111010101 ,
b1111111111010101 #
b1111111111010101 %
b11111111111111111111111111010101 $
#2900
b1111111111010110 !
b1111111111010110 (
b1111111111010110 -
00
b11111111111111111111111111010110 /
b1111111111010110 .
0"
b1111111111010110 *
b1111111111010110 +
b11111111111111111111111111010110 )
b11111111111111111111111111010110 ,
b1111111111010110 #
b1111111111010110 %
b11111111111111111111111111010110 $
#2950
b11111111111111111111111111010111 !
b11111111111111111111111111010111 (
b11111111111111111111111111010111 -
10
b11111111111111111111111111010111 /
b1111111111010111 .
1"
b1111111111010111 *
b1111111111010111 +
b11111111111111111111111111010111 )
b11111111111111111111111111010111 ,
b1111111111010111 #
b1111111111010111 %
b11111111111111111111111111010111 $
#3000
b1111111111011000 !
b1111111111011000 (
b1111111111011000 -
00
b11111111111111111111111111011000 /
b1111111111011000 .
0"
b1111111111011000 *
b1111111111011000 +
b11111111111111111111111111011000 )
b11111111111111111111111111011000 ,
b1111111111011000 #
b1111111111011000 %
b11111111111111111111111111011000 $
#3050
b11111111111111111111111111011001 !
b11111111111111111111111111011001 (
b11111111111111111111111111011001 -
10
b11111111111111111111111111011001 /
b1111111111011001 .
1"
b1111111111011001 *
b1111111111011001 +
b11111111111111111111111111011001 )
b11111111111111111111111111011001 ,
b1111111111011001 #
b1111111111011001 %
b11111111111111111111111111011001 $
#3100
b1111111111011010 !
b1111111111011010 (
b1111111111011010 -
00
b11111111111111111111111111011010 /
b1111111111011010 .
0"
b1111111111011010 *
b1111111111011010 +
b11111111111111111111111111011010 )
b11111111111111111111111111011010 ,
b1111111111011010 #
b1111111111011010 %
b11111111111111111111111111011010 $
#3150
b11111111111111111111111111011011 !
b11111111111111111111111111011011 (
b11111111111111111111111111011011 -
10
b11111111111111111111111111011011 /
b1111111111011011 .
1"
b1111111111011011 *
b1111111111011011 +
b11111111111111111111111111011011 )
b11111111111111111111111111011011 ,
b1111111111011011 #
b1111111111011011 %
b11111111111111111111111111011011 $
#3200
b1111111111011100 !
b1111111111011100 (
b1111111111011100 -
00
b11111111111111111111111111011100 /
b1111111111011100 .
0"
b1111111111011100 *
b1111111111011100 +
b11111111111111111111111111011100 )
b11111111111111111111111111011100 ,
b1111111111011100 #
b1111111111011100 %
b11111111111111111111111111011100 $
#3250
b11111111111111111111111111011101 !
b11111111111111111111111111011101 (
b11111111111111111111111111011101 -
10
b11111111111111111111111111011101 /
b1111111111011101 .
1"
b1111111111011101 *
b1111111111011101 +
b11111111111111111111111111011101 )
b11111111111111111111111111011101 ,
b1111111111011101 #
b1111111111011101 %
b11111111111111111111111111011101 $
#3300
b1111111111011110 !
b1111111111011110 (
b1111111111011110 -
00
b11111111111111111111111111011110 /
b1111111111011110 .
0"
b1111111111011110 *
b1111111111011110 +
b11111111111111111111111111011110 )
b11111111111111111111111111011110 ,
b1111111111011110 #
b1111111111011110 %
b11111111111111111111111111011110 $
#3350
b11111111111111111111111111011111 !
b11111111111111111111111111011111 (
b11111111111111111111111111011111 -
10
b11111111111111111111111111011111 /
b1111111111011111 .
1"
b1111111111011111 *
b1111111111011111 +
b11111111111111111111111111011111 )
b11111111111111111111111111011111 ,
b1111111111011111 #
b1111111111011111 %
b11111111111111111111111111011111 $
#3400
b1111111111100000 !
b1111111111100000 (
b1111111111100000 -
00
b11111111111111111111111111100000 /
b1111111111100000 .
0"
b1111111111100000 *
b1111111111100000 +
b11111111111111111111111111100000 )
b11111111111111111111111111100000 ,
b1111111111100000 #
b1111111111100000 %
b11111111111111111111111111100000 $
#3450
b11111111111111111111111111100001 !
b11111111111111111111111111100001 (
b11111111111111111111111111100001 -
10
b11111111111111111111111111100001 /
b1111111111100001 .
1"
b1111111111100001 *
b1111111111100001 +
b11111111111111111111111111100001 )
b11111111111111111111111111100001 ,
b1111111111100001 #
b1111111111100001 %
b11111111111111111111111111100001 $
#3500
b1111111111100010 !
b1111111111100010 (
b1111111111100010 -
00
b11111111111111111111111111100010 /
b1111111111100010 .
0"
b1111111111100010 *
b1111111111100010 +
b11111111111111111111111111100010 )
b11111111111111111111111111100010 ,
b1111111111100010 #
b1111111111100010 %
b11111111111111111111111111100010 $
#3550
b11111111111111111111111111100011 !
b11111111111111111111111111100011 (
b11111111111111111111111111100011 -
10
b11111111111111111111111111100011 /
b1111111111100011 .
1"
b1111111111100011 *
b1111111111100011 +
b11111111111111111111111111100011 )
b11111111111111111111111111100011 ,
b1111111111100011 #
b1111111111100011 %
b11111111111111111111111111100011 $
#3600
b1111111111100100 !
b1111111111100100 (
b1111111111100100 -
00
b11111111111111111111111111100100 /
b1111111111100100 .
0"
b1111111111100100 *
b1111111111100100 +
b11111111111111111111111111100100 )
b11111111111111111111111111100100 ,
b1111111111100100 #
b1111111111100100 %
b11111111111111111111111111100100 $
#3650
b11111111111111111111111111100101 !
b11111111111111111111111111100101 (
b11111111111111111111111111100101 -
10
b11111111111111111111111111100101 /
b1111111111100101 .
1"
b1111111111100101 *
b1111111111100101 +
b11111111111111111111111111100101 )
b11111111111111111111111111100101 ,
b1111111111100101 #
b1111111111100101 %
b11111111111111111111111111100101 $
#3700
b1111111111100110 !
b1111111111100110 (
b1111111111100110 -
00
b11111111111111111111111111100110 /
b1111111111100110 .
0"
b1111111111100110 *
b1111111111100110 +
b11111111111111111111111111100110 )
b11111111111111111111111111100110 ,
b1111111111100110 #
b1111111111100110 %
b11111111111111111111111111100110 $
#3750
b11111111111111111111111111100111 !
b11111111111111111111111111100111 (
b11111111111111111111111111100111 -
10
b11111111111111111111111111100111 /
b1111111111100111 .
1"
b1111111111100111 *
b1111111111100111 +
b11111111111111111111111111100111 )
b11111111111111111111111111100111 ,
b1111111111100111 #
b1111111111100111 %
b11111111111111111111111111100111 $
#3800
b1111111111101000 !
b1111111111101000 (
b1111111111101000 -
00
b11111111111111111111111111101000 /
b1111111111101000 .
0"
b1111111111101000 *
b1111111111101000 +
b11111111111111111111111111101000 )
b11111111111111111111111111101000 ,
b1111111111101000 #
b1111111111101000 %
b11111111111111111111111111101000 $
#3850
b11111111111111111111111111101001 !
b11111111111111111111111111101001 (
b11111111111111111111111111101001 -
10
b11111111111111111111111111101001 /
b1111111111101001 .
1"
b1111111111101001 *
b1111111111101001 +
b11111111111111111111111111101001 )
b11111111111111111111111111101001 ,
b1111111111101001 #
b1111111111101001 %
b11111111111111111111111111101001 $
#3900
b1111111111101010 !
b1111111111101010 (
b1111111111101010 -
00
b11111111111111111111111111101010 /
b1111111111101010 .
0"
b1111111111101010 *
b1111111111101010 +
b11111111111111111111111111101010 )
b11111111111111111111111111101010 ,
b1111111111101010 #
b1111111111101010 %
b11111111111111111111111111101010 $
#3950
b11111111111111111111111111101011 !
b11111111111111111111111111101011 (
b11111111111111111111111111101011 -
10
b11111111111111111111111111101011 /
b1111111111101011 .
1"
b1111111111101011 *
b1111111111101011 +
b11111111111111111111111111101011 )
b11111111111111111111111111101011 ,
b1111111111101011 #
b1111111111101011 %
b11111111111111111111111111101011 $
#4000
b1111111111101100 !
b1111111111101100 (
b1111111111101100 -
00
b11111111111111111111111111101100 /
b1111111111101100 .
0"
b1111111111101100 *
b1111111111101100 +
b11111111111111111111111111101100 )
b11111111111111111111111111101100 ,
b1111111111101100 #
b1111111111101100 %
b11111111111111111111111111101100 $
#4050
b11111111111111111111111111101101 !
b11111111111111111111111111101101 (
b11111111111111111111111111101101 -
10
b11111111111111111111111111101101 /
b1111111111101101 .
1"
b1111111111101101 *
b1111111111101101 +
b11111111111111111111111111101101 )
b11111111111111111111111111101101 ,
b1111111111101101 #
b1111111111101101 %
b11111111111111111111111111101101 $
#4100
b1111111111101110 !
b1111111111101110 (
b1111111111101110 -
00
b11111111111111111111111111101110 /
b1111111111101110 .
0"
b1111111111101110 *
b1111111111101110 +
b11111111111111111111111111101110 )
b11111111111111111111111111101110 ,
b1111111111101110 #
b1111111111101110 %
b11111111111111111111111111101110 $
#4150
b11111111111111111111111111101111 !
b11111111111111111111111111101111 (
b11111111111111111111111111101111 -
10
b11111111111111111111111111101111 /
b1111111111101111 .
1"
b1111111111101111 *
b1111111111101111 +
b11111111111111111111111111101111 )
b11111111111111111111111111101111 ,
b1111111111101111 #
b1111111111101111 %
b11111111111111111111111111101111 $
#4200
b1111111111110000 !
b1111111111110000 (
b1111111111110000 -
00
b11111111111111111111111111110000 /
b1111111111110000 .
0"
b1111111111110000 *
b1111111111110000 +
b11111111111111111111111111110000 )
b11111111111111111111111111110000 ,
b1111111111110000 #
b1111111111110000 %
b11111111111111111111111111110000 $
#4250
b11111111111111111111111111110001 !
b11111111111111111111111111110001 (
b11111111111111111111111111110001 -
10
b11111111111111111111111111110001 /
b1111111111110001 .
1"
b1111111111110001 *
b1111111111110001 +
b11111111111111111111111111110001 )
b11111111111111111111111111110001 ,
b1111111111110001 #
b1111111111110001 %
b11111111111111111111111111110001 $
#4300
b1111111111110010 !
b1111111111110010 (
b1111111111110010 -
00
b11111111111111111111111111110010 /
b1111111111110010 .
0"
b1111111111110010 *
b1111111111110010 +
b11111111111111111111111111110010 )
b11111111111111111111111111110010 ,
b1111111111110010 #
b1111111111110010 %
b11111111111111111111111111110010 $
#4350
b11111111111111111111111111110011 !
b11111111111111111111111111110011 (
b11111111111111111111111111110011 -
10
b11111111111111111111111111110011 /
b1111111111110011 .
1"
b1111111111110011 *
b1111111111110011 +
b11111111111111111111111111110011 )
b11111111111111111111111111110011 ,
b1111111111110011 #
b1111111111110011 %
b11111111111111111111111111110011 $
#4400
b1111111111110100 !
b1111111111110100 (
b1111111111110100 -
00
b11111111111111111111111111110100 /
b1111111111110100 .
0"
b1111111111110100 *
b1111111111110100 +
b11111111111111111111111111110100 )
b11111111111111111111111111110100 ,
b1111111111110100 #
b1111111111110100 %
b11111111111111111111111111110100 $
#4450
b11111111111111111111111111110101 !
b11111111111111111111111111110101 (
b11111111111111111111111111110101 -
10
b11111111111111111111111111110101 /
b1111111111110101 .
1"
b1111111111110101 *
b1111111111110101 +
b11111111111111111111111111110101 )
b11111111111111111111111111110101 ,
b1111111111110101 #
b1111111111110101 %
b11111111111111111111111111110101 $
#4500
b1111111111110110 !
b1111111111110110 (
b1111111111110110 -
00
b11111111111111111111111111110110 /
b1111111111110110 .
0"
b1111111111110110 *
b1111111111110110 +
b11111111111111111111111111110110 )
b11111111111111111111111111110110 ,
b1111111111110110 #
b1111111111110110 %
b11111111111111111111111111110110 $
#4550
b11111111111111111111111111110111 !
b11111111111111111111111111110111 (
b11111111111111111111111111110111 -
10
b11111111111111111111111111110111 /
b1111111111110111 .
1"
b1111111111110111 *
b1111111111110111 +
b11111111111111111111111111110111 )
b11111111111111111111111111110111 ,
b1111111111110111 #
b1111111111110111 %
b11111111111111111111111111110111 $
