SHIFTER_32/SHIFTER_32.vcd
$date
	Tue Oct 31 00:29:44 2023
$end
$version
	Icarus Verilog
$end
$timescale
	1ns
$end
$scope module tb_SHIFTER_32 $end
$var reg 1 ! Arith $end
$var reg 1 " Right $end
$var reg 5 # Sa [4:0] $end
$var reg 32 $ X [31:0] $end
$var integer 32 % j [31:0] $end
$scope module data $end
$var wire 1 ! Arith $end
$var wire 1 " Right $end
$var wire 5 & Sa [4:0] $end
$var wire 32 ' X [31:0] $end
$var wire 1 ( a $end
$var wire 16 ) e [15:0] $end
$var wire 32 * T4 [31:0] $end
$var wire 32 + T3 [31:0] $end
$var wire 32 , T2 [31:0] $end
$var wire 32 - T1 [31:0] $end
$var wire 32 . T0 [31:0] $end
$var wire 32 / Sh [31:0] $end
$var wire 32 0 S4 [31:0] $end
$var wire 32 1 S3 [31:0] $end
$var wire 32 2 S2 [31:0] $end
$var wire 32 3 S1 [31:0] $end
$var wire 32 4 L5u [31:0] $end
$var wire 32 5 L5d [31:0] $end
$var wire 32 6 L4u [31:0] $end
$var wire 32 7 L4d [31:0] $end
$var wire 32 8 L3u [31:0] $end
$var wire 32 9 L3d [31:0] $end
$var wire 32 : L2u [31:0] $end
$var wire 32 ; L2d [31:0] $end
$var wire 32 < L1u [31:0] $end
$var wire 32 = L1d [31:0] $end
$scope module M1l $end
$var wire 32 > A [31:0] $end
$var wire 32 ? B [31:0] $end
$var wire 1 " S $end
$var wire 32 @ Y [31:0] $end
$scope function select $end
$var reg 32 A A [31:0] $end
$var reg 32 B B [31:0] $end
$var reg 1 C S $end
$upscope $end
$upscope $end
$scope module M1r $end
$var wire 32 D A [31:0] $end
$var wire 32 E B [31:0] $end
$var wire 1 F S $end
$var wire 32 G Y [31:0] $end
$scope function select $end
$var reg 32 H A [31:0] $end
$var reg 32 I B [31:0] $end
$var reg 1 J S $end
$upscope $end
$upscope $end
$scope module M2l $end
$var wire 32 K A [31:0] $end
$var wire 32 L B [31:0] $end
$var wire 1 " S $end
$var wire 32 M Y [31:0] $end
$scope function select $end
$var reg 32 N A [31:0] $end
$var reg 32 O B [31:0] $end
$var reg 1 P S $end
$upscope $end
$upscope $end
$scope module M2r $end
$var wire 32 Q A [31:0] $end
$var wire 32 R B [31:0] $end
$var wire 1 S S $end
$var wire 32 T Y [31:0] $end
$scope function select $end
$var reg 32 U A [31:0] $end
$var reg 32 V B [31:0] $end
$var reg 1 W S $end
$upscope $end
$upscope $end
$scope module M3l $end
$var wire 32 X A [31:0] $end
$var wire 32 Y B [31:0] $end
$var wire 1 " S $end
$var wire 32 Z Y [31:0] $end
$scope function select $end
$var reg 32 [ A [31:0] $end
$var reg 32 \ B [31:0] $end
$var reg 1 ] S $end
$upscope $end
$upscope $end
$scope module M3r $end
$var wire 32 ^ A [31:0] $end
$var wire 32 _ B [31:0] $end
$var wire 1 ` S $end
$var wire 32 a Y [31:0] $end
$scope function select $end
$var reg 32 b A [31:0] $end
$var reg 32 c B [31:0] $end
$var reg 1 d S $end
$upscope $end
$upscope $end
$scope module M4l $end
$var wire 32 e A [31:0] $end
$var wire 32 f B [31:0] $end
$var wire 1 " S $end
$var wire 32 g Y [31:0] $end
$scope function select $end
$var reg 32 h A [31:0] $end
$var reg 32 i B [31:0] $end
$var reg 1 j S $end
$upscope $end
$upscope $end
$scope module M4r $end
$var wire 32 k A [31:0] $end
$var wire 32 l B [31:0] $end
$var wire 1 m S $end
$var wire 32 n Y [31:0] $end
$scope function select $end
$var reg 32 o A [31:0] $end
$var reg 32 p B [31:0] $end
$var reg 1 q S $end
$upscope $end
$upscope $end
$scope module M5l $end
$var wire 32 r A [31:0] $end
$var wire 32 s B [31:0] $end
$var wire 1 " S $end
$var wire 32 t Y [31:0] $end
$scope function select $end
$var reg 32 u A [31:0] $end
$var reg 32 v B [31:0] $end
$var reg 1 w S $end
$upscope $end
$upscope $end
$scope module M5r $end
$var wire 32 x A [31:0] $end
$var wire 32 y B [31:0] $end
$var wire 1 z S $end
$var wire 32 { Y [31:0] $end
$scope function select $end
$var reg 32 | A [31:0] $end
$var reg 32 } B [31:0] $end
$var reg 1 ~ S $end
$upscope $end
$upscope $end
$upscope $end
$upscope $end
$enddefinitions $end
#0
$dumpvars
1~
b0 }
b0 |
b0 {
1z
b0 y
b0 x
1w
b0 v
b0 u
b0 t
b0 s
b0 r
0q
b0 p
b0 o
b0 n
0m
b0 l
b0 k
1j
b0 i
b0 h
b0 g
b0 f
b0 e
1d
b0 c
b0 b
b0 a
1`
b0 _
b0 ^
1]
b0 \
b0 [
b0 Z
b0 Y
b0 X
0W
b0 V
b0 U
b0 T
0S
b0 R
b0 Q
1P
b0 O
b0 N
b0 M
b0 L
b0 K
0J
b0 I
b0 H
b0 G
0F
b0 E
b0 D
1C
b0 B
b0 A
b0 @
b0 ?
b0 >
b0 =
b0 <
b0 ;
b0 :
b0 9
b0 8
b0 7
b0 6
b0 5
b0 4
b0 3
b0 2
b0 1
b0 0
b0 /
b0 .
b0 -
b0 ,
b0 +
b0 *
b0 )
0(
b0 '
b101 &
b0 %
b0 $
b101 #
1"
0!
$end
#50
0d
0~
b10000000000000000 A
b100000000 N
b10000 [
b100 h
b10 u
1W
b1 U
1S
0`
0z
b10000000000000000 <
b10000000000000000 >
b100000000 :
b100000000 K
b10000 8
b10000 X
b100 6
b100 e
b10 4
b10 r
b1 0
b1 G
b1 Q
b1 H
1!
b1000 #
b1000 &
b1 $
b1 '
b1 D
b1 %
#100
1q
b1 /
b1 {
1~
b1 }
b100000000000000000 A
b1000000000 N
b100000 [
b1000 h
b1 .
b1 t
b1 y
b1 v
b100 u
b10 U
1m
1z
b100000000000000000 <
b100000000000000000 >
b1000000000 :
b1000000000 K
b100000 8
b100000 X
b1000 6
b1000 e
b100 4
b100 r
b1 5
b1 s
b10 0
b10 G
b10 Q
b10 H
0!
b1011 #
b1011 &
b10 $
b10 '
b10 D
b10 %
#150
1d
b0 /
b0 {
0~
b110000000000000000 A
b1100000000 N
b110000 [
b1100 h
b110 u
b11 U
1`
0z
b110000000000000000 <
b110000000000000000 >
b1100000000 :
b1100000000 K
b110000 8
b110000 X
b1100 6
b1100 e
b110 4
b110 r
b11 0
b11 G
b11 Q
b11 H
1!
b1110 #
b1110 &
b11 $
b11 '
b11 D
b11 %
#200
b0 |
b0 3
b0 n
b0 x
b0 o
1J
b0 2
b0 a
b0 k
0d
b0 b
0q
b1 p
b10 /
b10 {
1~
b10 }
b1000000000000000000 A
b10000000000 N
b1000000 [
b1 -
b1 g
b1 l
b1 i
b10000 h
b10 .
b10 t
b10 y
b10 v
b1000 u
b0 1
b0 T
b0 ^
0W
b0 U
1F
0S
0`
0m
1z
b1000000000000000000 <
b1000000000000000000 >
b10000000000 :
b10000000000 K
b1000000 8
b1000000 X
b10000 6
b10000 e
b1 7
b1 f
b1000 4
b1000 r
b10 5
b10 s
b0 0
b0 G
b0 Q
b100 H
0!
b10001 #
b10001 &
b100 $
b100 '
b100 D
b100 %
#250
1d
b0 /
b0 {
0~
b1010000000000000000 A
b10100000000 N
b1010000 [
b10100 h
b1010 u
1`
0z
b1010000000000000000 <
b1010000000000000000 >
b10100000000 :
b10100000000 K
b1010000 8
b1010000 X
b10100 6
b10100 e
b1010 4
b1010 r
b101 H
1!
b10100 #
b10100 &
b101 $
b101 '
b101 D
b101 %
#300
b1 |
b1 3
b1 n
b1 x
1q
b11 /
b11 {
1~
b11 }
b1100000000000000000 A
b11000000000 N
b1100000 [
b11000 h
b11 .
b11 t
b11 y
b11 v
b1100 u
1m
1z
b1100000000000000000 <
b1100000000000000000 >
b11000000000 :
b11000000000 K
b1100000 8
b1100000 X
b11000 6
b11000 e
b1100 4
b1100 r
b11 5
b11 s
b110 H
0!
b10111 #
b10111 &
b110 $
b110 '
b110 D
b110 %
#350
1W
0d
b1 /
b1 {
0~
b1110000000000000000 A
b11100000000 N
b1110000 [
b11100 h
b1110 u
1S
0`
0z
b1110000000000000000 <
b1110000000000000000 >
b11100000000 :
b11100000000 K
b1110000 8
b1110000 X
b11100 6
b11100 e
b1110 4
b1110 r
b111 H
1!
b11010 #
b11010 &
b111 $
b111 '
b111 D
b111 %
#400
b0 |
1d
b0 3
b0 n
b0 x
0q
b10 p
b100 /
b100 {
1~
b100 }
b10000000000000000000 A
b100000000000 N
b10000000 [
b10 -
b10 g
b10 l
b10 i
b100000 h
b100 .
b100 t
b100 y
b100 v
b10000 u
1`
0m
1z
b10000000000000000000 <
b10000000000000000000 >
b100000000000 :
b100000000000 K
b10000000 8
b10000000 X
b100000 6
b100000 e
b10 7
b10 f
b10000 4
b10000 r
b100 5
b100 s
b1000 H
0!
b11101 #
b11101 &
b1000 $
b1000 '
b1000 D
b1000 %
#450
b1001 |
b1001 3
b1001 n
b1001 x
b1001 o
b1001 2
b1001 a
b1001 k
b1001 b
b1001 1
b1001 T
b1001 ^
b1001 U
b1001 0
b1001 G
b1001 Q
0J
0W
0d
b1001 /
b1001 {
0~
b10010000000000000000 A
b100100000000 N
b10010000 [
b100100 h
b10010 u
0F
0S
0`
0z
b10010000000000000000 <
b10010000000000000000 >
b100100000000 :
b100100000000 K
b10010000 8
b10010000 X
b100100 6
b100100 e
b10010 4
b10010 r
b1001 H
1!
b0 #
b0 &
b1001 $
b1001 '
b1001 D
b1001 %
#500
b1010 o
b10 |
b1010 2
b1010 a
b1010 k
b1010 b
b10 3
b10 n
b10 x
1q
b101 /
b101 {
1~
b101 }
b10100000000000000000 A
b101000000000 N
b10100000 [
b101000 h
b101 .
b101 t
b101 y
b101 v
b10100 u
b1010 1
b1010 T
b1010 ^
b1010 U
1m
1z
b10100000000000000000 <
b10100000000000000000 >
b101000000000 :
b101000000000 K
b10100000 8
b10100000 X
b101000 6
b101000 e
b10100 4
b10100 r
b101 5
b101 s
b1010 0
b1010 G
b1010 Q
b1010 H
0!
b11 #
b11 &
b1010 $
b1010 '
b1010 D
b1010 %
#550
b101100 |
b10110000000000000000 I
b101100 3
b101100 n
b101100 x
b101100 p
b10110000 o
b10110000 2
b10110000 a
b10110000 k
1d
b10110000 c
b1011 b
b101100 /
b101100 {
0~
b10110 }
b1011 1
b1011 T
b1011 ^
b101100000000 V
b1011 U
b10110000000000000000 *
b10110000000000000000 @
b10110000000000000000 E
0C
b10110000000000000000 A
b101100000000 +
b101100000000 M
b101100000000 R
0P
b101100000000 N
b10110000 ,
b10110000 Z
b10110000 _
0]
b10110000 [
b101100 -
b101100 g
b101100 l
0j
b101100 h
b10110 .
b10110 t
b10110 y
0w
b10110 u
1`
0z
b10110000000000000000 <
b10110000000000000000 >
b101100000000 :
b101100000000 K
b10110000 8
b10110000 X
b101100 6
b101100 e
b10110 4
b10110 r
b1011 0
b1011 G
b1011 Q
b1011 H
0"
1!
b110 #
b110 &
b1011 $
b1011 '
b1011 D
b1011 %
#600
b110000000000 o
b110000000000 |
b11000000000000000000 I
b110000000000 V
b110000000000 2
b110000000000 a
b110000000000 k
0d
b11000000 c
b110000000000 b
b110000000000 3
b110000000000 n
b110000000000 x
0q
b110000 p
b11000 /
b11000 {
1~
b11000 }
b11000000000000000000 *
b11000000000000000000 @
b11000000000000000000 E
b11000000000000000000 A
b110000000000 +
b110000000000 M
b110000000000 R
b110000000000 N
b11000000 ,
b11000000 Z
b11000000 _
b11000000 [
b110000 -
b110000 g
b110000 l
b11 i
b110000 h
b11000 .
b11000 t
b11000 y
b110 v
b11000 u
b110000000000 1
b110000000000 T
b110000000000 ^
1W
b1100 U
1S
0`
0m
1z
b11000000000000000000 <
b11000000000000000000 >
b110000000000 :
b110000000000 K
b11000000 8
b11000000 X
b110000 6
b110000 e
b11 7
b11 f
b11000 4
b11000 r
b110 5
b110 s
b1100 0
b1100 G
b1100 Q
b1100 H
0!
b1001 #
b1001 &
b1100 $
b1100 '
b1100 D
b1100 %
#650
b110100000000 b
b11010000 |
b11010000000000000000 I
b110100000000 1
b110100000000 T
b110100000000 ^
b110100000000 V
b11010000 3
b11010000 n
b11010000 x
b110100 p
b11010000 o
b11010000 2
b11010000 a
b11010000 k
1d
b11010000 c
b11010000 /
b11010000 {
0~
b11010 }
b11010000000000000000 *
b11010000000000000000 @
b11010000000000000000 E
b11010000000000000000 A
b110100000000 +
b110100000000 M
b110100000000 R
b110100000000 N
b11010000 ,
b11010000 Z
b11010000 _
b11010000 [
b110100 -
b110100 g
b110100 l
b110100 h
b11010 .
b11010 t
b11010 y
b11010 u
b1101 U
1`
0z
b11010000000000000000 <
b11010000000000000000 >
b110100000000 :
b110100000000 K
b11010000 8
b11010000 X
b110100 6
b110100 e
b11010 4
b11010 r
b1101 0
b1101 G
b1101 Q
b1101 H
1!
b1100 #
b1100 &
b1101 $
b1101 '
b1101 D
b1101 %
#700
b111000000000 b
b11100000 o
b111000 |
b11100000000000000000 I
b111000000000 1
b111000000000 T
b111000000000 ^
b111000000000 V
b11100000 2
b11100000 a
b11100000 k
b11100000 c
b111000 3
b111000 n
b111000 x
1q
b111000 p
b11100 /
b11100 {
1~
b11100 }
b11100000000000000000 *
b11100000000000000000 @
b11100000000000000000 E
b11100000000000000000 A
b111000000000 +
b111000000000 M
b111000000000 R
b111000000000 N
b11100000 ,
b11100000 Z
b11100000 _
b11100000 [
b111000 -
b111000 g
b111000 l
b111000 h
b11100 .
b11100 t
b11100 y
b111 v
b11100 u
b1110 U
1m
1z
b11100000000000000000 <
b11100000000000000000 >
b111000000000 :
b111000000000 K
b11100000 8
b11100000 X
b111000 6
b111000 e
b11100 4
b11100 r
b111 5
b111 s
b1110 0
b1110 G
b1110 Q
b1110 H
0!
b1111 #
b1111 &
b1110 $
b1110 '
b1110 D
b1110 %
#750
b111100 |
b111100000000 V
b111100 3
b111100 n
b111100 x
b111100 p
b11110000000000000000 o
1J
b11110000000000000000 I
b11110000000000000000 2
b11110000000000000000 a
b11110000000000000000 k
0d
b11110000 c
b11110000000000000000 b
b111100 /
b111100 {
0~
b11110 }
b11110000000000000000 *
b11110000000000000000 @
b11110000000000000000 E
b11110000000000000000 A
b111100000000 +
b111100000000 M
b111100000000 R
b111100000000 N
b11110000 ,
b11110000 Z
b11110000 _
b11110000 [
b111100 -
b111100 g
b111100 l
b111100 h
b11110 .
b11110 t
b11110 y
b11110 u
b11110000000000000000 1
b11110000000000000000 T
b11110000000000000000 ^
0W
b11110000000000000000 U
1F
0S
0`
0z
b11110000000000000000 <
b11110000000000000000 >
b111100000000 :
b111100000000 K
b11110000 8
b11110000 X
b111100 6
b111100 e
b11110 4
b11110 r
b11110000000000000000 0
b11110000000000000000 G
b11110000000000000000 Q
b1111 H
1!
b10010 #
b10010 &
b1111 $
b1111 '
b1111 D
b1111 %
#800
b100000000000000000000 b
b100000000000000000000 1
b100000000000000000000 T
b100000000000000000000 ^
b100000000000000000000 U
b100000000 o
b100000000 |
b100000000000000000000 0
b100000000000000000000 G
b100000000000000000000 Q
b100000000000000000000 I
b1000000000000 V
b100000000 2
b100000000 a
b100000000 k
1d
b100000000 c
b100000000 3
b100000000 n
b100000000 x
0q
b1000000 p
b100000 /
b100000 {
1~
b100000 }
b100000000000000000000 *
b100000000000000000000 @
b100000000000000000000 E
b100000000000000000000 A
b1000000000000 +
b1000000000000 M
b1000000000000 R
b1000000000000 N
b100000000 ,
b100000000 Z
b100000000 _
b1 \
b100000000 [
b1000000 -
b1000000 g
b1000000 l
b100 i
b1000000 h
b100000 .
b100000 t
b100000 y
b1000 v
b100000 u
1`
0m
1z
b100000000000000000000 <
b100000000000000000000 >
b1000000000000 :
b1000000000000 K
b100000000 8
b100000000 X
b1 9
b1 Y
b1000000 6
b1000000 e
b100 7
b100 f
b100000 4
b100000 r
b1000 5
b1000 s
b10000 H
0!
b10101 #
b10101 &
b10000 $
b10000 '
b10000 D
b10000 %
#850
b100010000000000000000 U
b1000100000000 |
b1000100000000 b
b100010000000000000000 0
b100010000000000000000 G
b100010000000000000000 Q
b100010000000000000000 I
b1000100000000 3
b1000100000000 n
b1000100000000 x
b1000100 p
b1000100000000 o
b1000100000000 1
b1000100000000 T
b1000100000000 ^
1W
b1000100000000 V
b1000100000000 2
b1000100000000 a
b1000100000000 k
0d
b100010000 c
b1000100000000 /
b1000100000000 {
0~
b100010 }
b100010000000000000000 *
b100010000000000000000 @
b100010000000000000000 E
b100010000000000000000 A
b1000100000000 +
b1000100000000 M
b1000100000000 R
b1000100000000 N
b100010000 ,
b100010000 Z
b100010000 _
b100010000 [
b1000100 -
b1000100 g
b1000100 l
b1000100 h
b100010 .
b100010 t
b100010 y
b100010 u
1S
0`
0z
b100010000000000000000 <
b100010000000000000000 >
b1000100000000 :
b1000100000000 K
b100010000 8
b100010000 X
b1000100 6
b1000100 e
b100010 4
b100010 r
b10001 H
1!
b11000 #
b11000 &
b10001 $
b10001 '
b10001 D
b10001 %
#900
b1001000000000 o
b100100000000000000000 U
b1001000000000 2
b1001000000000 a
b1001000000000 k
b1001000000000 b
b1001000 |
b100100000000000000000 0
b100100000000000000000 G
b100100000000000000000 Q
b100100000000000000000 I
b1001000000000 1
b1001000000000 T
b1001000000000 ^
b1001000000000 V
b100100000 c
b1001000 3
b1001000 n
b1001000 x
1q
b1001000 p
b100100 /
b100100 {
1~
b100100 }
b100100000000000000000 *
b100100000000000000000 @
b100100000000000000000 E
b100100000000000000000 A
b1001000000000 +
b1001000000000 M
b1001000000000 R
b1001000000000 N
b100100000 ,
b100100000 Z
b100100000 _
b100100000 [
b1001000 -
b1001000 g
b1001000 l
b1001000 h
b100100 .
b100100 t
b100100 y
b1001 v
b100100 u
1m
1z
b100100000000000000000 <
b100100000000000000000 >
b1001000000000 :
b1001000000000 K
b100100000 8
b100100000 X
b1001000 6
b1001000 e
b100100 4
b100100 r
b1001 5
b1001 s
b10010 H
0!
b11011 #
b11011 &
b10010 $
b10010 '
b10010 D
b10010 %
#950
b100110000000000000000 U
b1001100000000 b
b1001100 |
b100110000000000000000 0
b100110000000000000000 G
b100110000000000000000 Q
b100110000000000000000 I
b1001100000000 1
b1001100000000 T
b1001100000000 ^
b1001100000000 V
b1001100 3
b1001100 n
b1001100 x
b1001100 p
b100110000 o
b100110000 2
b100110000 a
b100110000 k
1d
b100110000 c
b1001100 /
b1001100 {
0~
b100110 }
b100110000000000000000 *
b100110000000000000000 @
b100110000000000000000 E
b100110000000000000000 A
b1001100000000 +
b1001100000000 M
b1001100000000 R
b1001100000000 N
b100110000 ,
b100110000 Z
b100110000 _
b100110000 [
b1001100 -
b1001100 g
b1001100 l
b1001100 h
b100110 .
b100110 t
b100110 y
b100110 u
1`
0z
b100110000000000000000 <
b100110000000000000000 >
b1001100000000 :
b1001100000000 K
b100110000 8
b100110000 X
b1001100 6
b1001100 e
b100110 4
b100110 r
b10011 H
1!
b11110 #
b11110 &
b10011 $
b10011 '
b10011 D
b10011 %
#1000
b10100 U
b10100 b
b10100 o
b10100 |
b10100 0
b10100 G
b10100 Q
0J
b101000000000000000000 I
b10100 1
b10100 T
b10100 ^
0W
b1010000000000 V
b10100 2
b10100 a
b10100 k
0d
b101000000 c
b10100 3
b10100 n
b10100 x
0q
b1010000 p
b101000 /
b101000 {
1~
b101000 }
b101000000000000000000 *
b101000000000000000000 @
b101000000000000000000 E
b101000000000000000000 A
b1010000000000 +
b1010000000000 M
b1010000000000 R
b1010000000000 N
b101000000 ,
b101000000 Z
b101000000 _
b101000000 [
b1010000 -
b1010000 g
b1010000 l
b101 i
b1010000 h
b101000 .
b101000 t
b101000 y
b1010 v
b101000 u
0F
0S
0`
0m
1z
b101000000000000000000 <
b101000000000000000000 >
b1010000000000 :
b1010000000000 K
b101000000 8
b101000000 X
b1010000 6
b1010000 e
b101 7
b101 f
b101000 4
b101000 r
b1010 5
b1010 s
b10100 H
0!
b1 #
b1 &
b10100 $
b10100 '
b10100 D
b10100 %
#1050
b101010000 |
b101010000000000000000 I
b1010100000000 V
b101010000 3
b101010000 n
b101010000 x
b1010100 p
b101010000 o
b101010000 2
b101010000 a
b101010000 k
1d
b101010000 c
b10101 b
b101010000 /
b101010000 {
0~
b101010 }
b101010000000000000000 *
b101010000000000000000 @
b101010000000000000000 E
b101010000000000000000 A
b1010100000000 +
b1010100000000 M
b1010100000000 R
b1010100000000 N
b101010000 ,
b101010000 Z
b101010000 _
b101010000 [
b1010100 -
b1010100 g
b1010100 l
b1010100 h
b101010 .
b101010 t
b101010 y
b101010 u
b10101 1
b10101 T
b10101 ^
b10101 U
1`
0z
b101010000000000000000 <
b101010000000000000000 >
b1010100000000 :
b1010100000000 K
b101010000 8
b101010000 X
b1010100 6
b1010100 e
b101010 4
b101010 r
b10101 0
b10101 G
b10101 Q
b10101 H
1!
b100 #
b100 &
b10101 $
b10101 '
b10101 D
b10101 %
#1100
b101100000 o
b1011000 |
b101100000000000000000 I
b1011000000000 V
b101100000 2
b101100000 a
b101100000 k
b101100000 c
b10110 b
b1011000 3
b1011000 n
b1011000 x
1q
b1011000 p
b101100 /
b101100 {
1~
b101100 }
b101100000000000000000 *
b101100000000000000000 @
b101100000000000000000 E
b101100000000000000000 A
b1011000000000 +
b1011000000000 M
b1011000000000 R
b1011000000000 N
b101100000 ,
b101100000 Z
b101100000 _
b101100000 [
b1011000 -
b1011000 g
b1011000 l
b1011000 h
b101100 .
b101100 t
b101100 y
b1011 v
b101100 u
b10110 1
b10110 T
b10110 ^
b10110 U
1m
1z
b101100000000000000000 <
b101100000000000000000 >
b1011000000000 :
b1011000000000 K
b101100000 8
b101100000 X
b1011000 6
b1011000 e
b101100 4
b101100 r
b1011 5
b1011 s
b10110 0
b10110 G
b10110 Q
b10110 H
0!
b111 #
b111 &
b10110 $
b10110 '
b10110 D
b10110 %
#1150
b101 |
b0 I
b101 3
b101 n
b101 x
b101 p
b0 o
b0 2
b0 a
b0 k
0d
b1 c
b0 b
b101 /
b101 {
0~
b1011 }
b0 1
b0 T
b0 ^
1W
b0 V
b10111 U
b0 *
b0 @
b0 E
1C
b101110000000000000000 A
b0 +
b0 M
b0 R
1P
b1011100000000 N
b1 ,
b1 Z
b1 _
1]
b101110000 [
b101 -
b101 g
b101 l
1j
b1011100 h
b1011 .
b1011 t
b1011 y
1w
b101110 u
1S
0`
0z
b101110000000000000000 <
b101110000000000000000 >
b1011100000000 :
b1011100000000 K
b101110000 8
b101110000 X
b1011100 6
b1011100 e
b101110 4
b101110 r
b10111 0
b10111 G
b10111 Q
b10111 H
1"
1!
b1010 #
b1010 &
b10111 $
b10111 '
b10111 D
b10111 %
#1200
b1 o
b1 |
b1 2
b1 a
b1 k
1d
b1 3
b1 n
b1 x
0q
b110 p
b1100 /
b1100 {
1~
b1100 }
b110000000000000000000 A
b1100000000000 N
b110000000 [
b110 -
b110 g
b110 l
b110 i
b1100000 h
b1100 .
b1100 t
b1100 y
b1100 v
b110000 u
b11000 U
1`
0m
1z
b110000000000000000000 <
b110000000000000000000 >
b1100000000000 :
b1100000000000 K
b110000000 8
b110000000 X
b1100000 6
b1100000 e
b110 7
b110 f
b110000 4
b110000 r
b1100 5
b1100 s
b11000 0
b11000 G
b11000 Q
b11000 H
0!
b1101 #
b1101 &
b11000 $
b11000 '
b11000 D
b11000 %
#1250
b0 |
b0 3
b0 n
b0 x
b0 o
1J
b0 2
b0 a
b0 k
0d
b0 b
b0 /
b0 {
0~
b110010000000000000000 A
b1100100000000 N
b110010000 [
b1100100 h
b110010 u
b0 1
b0 T
b0 ^
0W
b0 U
1F
0S
0`
0z
b110010000000000000000 <
b110010000000000000000 >
b1100100000000 :
b1100100000000 K
b110010000 8
b110010000 X
b1100100 6
b1100100 e
b110010 4
b110010 r
b0 0
b0 G
b0 Q
b11001 H
1!
b10000 #
b10000 &
b11001 $
b11001 '
b11001 D
b11001 %
#1300
b110 |
b110 3
b110 n
b110 x
1q
b1101 /
b1101 {
1~
b1101 }
b110100000000000000000 A
b1101000000000 N
b110100000 [
b1101000 h
b1101 .
b1101 t
b1101 y
b1101 v
b110100 u
1m
1z
b110100000000000000000 <
b110100000000000000000 >
b1101000000000 :
b1101000000000 K
b110100000 8
b110100000 X
b1101000 6
b1101000 e
b110100 4
b110100 r
b1101 5
b1101 s
b11010 H
0!
b10011 #
b10011 &
b11010 $
b11010 '
b11010 D
b11010 %
#1350
b1 o
b1 2
b1 a
b1 k
1d
b110 /
b110 {
0~
b110110000000000000000 A
b1101100000000 N
b110110000 [
b1101100 h
b110110 u
1`
0z
b110110000000000000000 <
b110110000000000000000 >
b1101100000000 :
b1101100000000 K
b110110000 8
b110110000 X
b1101100 6
b1101100 e
b110110 4
b110110 r
b11011 H
1!
b10110 #
b10110 &
b11011 $
b11011 '
b11011 D
b11011 %
#1400
b0 o
b0 |
1W
b0 2
b0 a
b0 k
0d
b0 3
b0 n
b0 x
0q
b111 p
b1110 /
b1110 {
1~
b1110 }
b111000000000000000000 A
b1110000000000 N
b111000000 [
b111 -
b111 g
b111 l
b111 i
b1110000 h
b1110 .
b1110 t
b1110 y
b1110 v
b111000 u
1S
0`
0m
1z
b111000000000000000000 <
b111000000000000000000 >
b1110000000000 :
b1110000000000 K
b111000000 8
b111000000 X
b1110000 6
b1110000 e
b111 7
b111 f
b111000 4
b111000 r
b1110 5
b1110 s
b11100 H
0!
b11001 #
b11001 &
b11100 $
b11100 '
b11100 D
b11100 %
#1450
b1 |
b1 3
b1 n
b1 x
b1 o
b1 2
b1 a
b1 k
1d
b1 /
b1 {
0~
b111010000000000000000 A
b1110100000000 N
b111010000 [
b1110100 h
b111010 u
1`
0z
b111010000000000000000 <
b111010000000000000000 >
b1110100000000 :
b1110100000000 K
b111010000 8
b111010000 X
b1110100 6
b1110100 e
b111010 4
b111010 r
b11101 H
1!
b11100 #
b11100 &
b11101 $
b11101 '
b11101 D
b11101 %
#1500
b111 |
b111 3
b111 n
b111 x
1q
b1111 /
b1111 {
1~
b1111 }
b111100000000000000000 A
b1111000000000 N
b111100000 [
b1111000 h
b1111 .
b1111 t
b1111 y
b1111 v
b111100 u
1m
1z
b111100000000000000000 <
b111100000000000000000 >
b1111000000000 :
b1111000000000 K
b111100000 8
b111100000 X
b1111000 6
b1111000 e
b111100 4
b111100 r
b1111 5
b1111 s
b11110 H
0!
b11111 #
b11111 &
b11110 $
b11110 '
b11110 D
b11110 %
#1550
b11111 b
b11111 1
b11111 T
b11111 ^
b11111 U
b11111 o
b11111 0
b11111 G
b11111 Q
0J
0W
b11111 2
b11111 a
b11111 k
0d
b111 /
b111 {
0~
b111110000000000000000 A
b1111100000000 N
b111110000 [
b1111100 h
b111110 u
0F
0S
0`
0z
b111110000000000000000 <
b111110000000000000000 >
b1111100000000 :
b1111100000000 K
b111110000 8
b111110000 X
b1111100 6
b1111100 e
b111110 4
b111110 r
b11111 H
1!
b10 #
b10 &
b11111 $
b11111 '
b11111 D
b11111 %
#1600
b10 o
b10 |
b10 2
b10 a
b10 k
1d
b10 c
b100000 b
b10 3
b10 n
b10 x
0q
b1000 p
b10000 /
b10000 {
1~
b10000 }
b1000000000000000000000 A
b10000000000000 N
b10 ,
b10 Z
b10 _
b10 \
b1000000000 [
b1000 -
b1000 g
b1000 l
b1000 i
b10000000 h
b10000 .
b10000 t
b10000 y
b10000 v
b1000000 u
b100000 1
b100000 T
b100000 ^
b100000 U
1`
0m
1z
b1000000000000000000000 <
b1000000000000000000000 >
b10000000000000 :
b10000000000000 K
b1000000000 8
b1000000000 X
b10 9
b10 Y
b10000000 6
b10000000 e
b1000 7
b1000 f
b1000000 4
b1000000 r
b10000 5
b10000 s
b100000 0
b100000 G
b100000 Q
b100000 H
0!
b101 #
b101 &
b100000 $
b100000 '
b100000 D
b100000 %
#1650
b0 |
b0 3
b0 n
b0 x
b0 o
b0 2
b0 a
b0 k
0d
b0 b
b0 /
b0 {
0~
b1000010000000000000000 A
b10000100000000 N
b1000010000 [
b10000100 h
b1000010 u
b0 1
b0 T
b0 ^
1W
b100001 U
1S
0`
0z
b1000010000000000000000 <
b1000010000000000000000 >
b10000100000000 :
b10000100000000 K
b1000010000 8
b1000010000 X
b10000100 6
b10000100 e
b1000010 4
b1000010 r
b100001 0
b100001 G
b100001 Q
b100001 H
1!
b1000 #
b1000 &
b100001 $
b100001 '
b100001 D
b100001 %
#1700
b10001000000000 o
b10001000 |
b1000100000000000000000 I
b10001000000000 2
b10001000000000 a
b10001000000000 k
b1000100000 c
b10001000000000 b
b10001000 3
b10001000 n
b10001000 x
1q
b10001000 p
b1000100 /
b1000100 {
1~
b1000100 }
b10001000000000 1
b10001000000000 T
b10001000000000 ^
b10001000000000 V
b100010 U
b1000100000000000000000 *
b1000100000000000000000 @
b1000100000000000000000 E
0C
b1000100000000000000000 A
b10001000000000 +
b10001000000000 M
b10001000000000 R
0P
b10001000000000 N
b1000100000 ,
b1000100000 Z
b1000100000 _
0]
b1000100000 [
b10001000 -
b10001000 g
b10001000 l
0j
b10001000 h
b1000100 .
b1000100 t
b1000100 y
0w
b10001 v
b1000100 u
1m
1z
b1000100000000000000000 <
b1000100000000000000000 >
b10001000000000 :
b10001000000000 K
b1000100000 8
b1000100000 X
b10001000 6
b10001000 e
b1000100 4
b1000100 r
b10001 5
b10001 s
b100010 0
b100010 G
b100010 Q
b100010 H
0"
0!
b1011 #
b1011 &
b100010 $
b100010 '
b100010 D
b100010 %
